%YAML 1.1
%TAG !u! tag:unity3d.com,2011:
--- !u!1 &4811052206315058252
GameObject:
  m_ObjectHideFlags: 0
  m_CorrespondingSourceObject: {fileID: 0}
  m_PrefabInstance: {fileID: 0}
  m_PrefabAsset: {fileID: 0}
  serializedVersion: 6
  m_Component:
  - component: {fileID: 4811052206315058249}
  - component: {fileID: 4811052206315058250}
  - component: {fileID: 4811052206315058251}
  - component: {fileID: 4811052206315058263}
  - component: {fileID: 4811052206315058248}
  m_Layer: 0
  m_Name: Orange Monster
  m_TagString: Monster
  m_Icon: {fileID: 0}
  m_NavMeshLayer: 0
  m_StaticEditorFlags: 0
  m_IsActive: 1
--- !u!4 &4811052206315058249
Transform:
  m_ObjectHideFlags: 0
  m_CorrespondingSourceObject: {fileID: 0}
  m_PrefabInstance: {fileID: 0}
  m_PrefabAsset: {fileID: 0}
  m_GameObject: {fileID: 4811052206315058252}
  m_LocalRotation: {x: 0, y: 0, z: 0, w: 1}
  m_LocalPosition: {x: 0, y: 0, z: 0}
  m_LocalScale: {x: 0.7, y: 0.7, z: 1}
  m_Children: []
  m_Father: {fileID: 0}
  m_RootOrder: 0
  m_LocalEulerAnglesHint: {x: 0, y: 0, z: 0}
--- !u!212 &4811052206315058250
SpriteRenderer:
  m_ObjectHideFlags: 0
  m_CorrespondingSourceObject: {fileID: 0}
  m_PrefabInstance: {fileID: 0}
  m_PrefabAsset: {fileID: 0}
  m_GameObject: {fileID: 4811052206315058252}
  m_Enabled: 1
  m_CastShadows: 0
  m_ReceiveShadows: 0
  m_DynamicOccludee: 1
  m_MotionVectors: 1
  m_LightProbeUsage: 1
  m_ReflectionProbeUsage: 1
  m_RayTracingMode: 0
  m_RenderingLayerMask: 1
  m_RendererPriority: 0
  m_Materials:
  - {fileID: 10754, guid: 0000000000000000f000000000000000, type: 0}
  m_StaticBatchInfo:
    firstSubMesh: 0
    subMeshCount: 0
  m_StaticBatchRoot: {fileID: 0}
  m_ProbeAnchor: {fileID: 0}
  m_LightProbeVolumeOverride: {fileID: 0}
  m_ScaleInLightmap: 1
  m_ReceiveGI: 1
  m_PreserveUVs: 0
  m_IgnoreNormalsForChartDetection: 0
  m_ImportantGI: 0
  m_StitchLightmapSeams: 1
  m_SelectedEditorRenderState: 0
  m_MinimumChartSize: 4
  m_AutoUVMaxDistance: 0.5
  m_AutoUVMaxAngle: 89
  m_LightmapParameters: {fileID: 0}
  m_SortingLayerID: 0
  m_SortingLayer: 0
  m_SortingOrder: 0
  m_Sprite: {fileID: 21300000, guid: 178ec4a55d28a344b8c555f1f37c413f, type: 3}
  m_Color: {r: 1, g: 1, b: 1, a: 1}
  m_FlipX: 0
  m_FlipY: 0
  m_DrawMode: 0
  m_Size: {x: 5.53, y: 4.11}
  m_AdaptiveModeThreshold: 0.5
  m_SpriteTileMode: 0
  m_WasSpriteAssigned: 1
  m_MaskInteraction: 0
  m_SpriteSortPoint: 0
--- !u!95 &4811052206315058251
Animator:
  serializedVersion: 3
  m_ObjectHideFlags: 0
  m_CorrespondingSourceObject: {fileID: 0}
  m_PrefabInstance: {fileID: 0}
  m_PrefabAsset: {fileID: 0}
  m_GameObject: {fileID: 4811052206315058252}
  m_Enabled: 1
  m_Avatar: {fileID: 0}
  m_Controller: {fileID: 9100000, guid: 645c0ba212c76ad4bbc53dc6d181effa, type: 2}
  m_CullingMode: 0
  m_UpdateMode: 0
  m_ApplyRootMotion: 0
  m_LinearVelocityBlending: 0
  m_WarningMessage: 
  m_HasTransformHierarchy: 1
  m_AllowConstantClipSamplingOptimization: 1
  m_KeepAnimatorControllerStateOnDisable: 0
--- !u!60 &4811052206315058263
PolygonCollider2D:
  m_ObjectHideFlags: 0
  m_CorrespondingSourceObject: {fileID: 0}
  m_PrefabInstance: {fileID: 0}
  m_PrefabAsset: {fileID: 0}
  m_GameObject: {fileID: 4811052206315058252}
  m_Enabled: 1
  m_Density: 1
  m_Material: {fileID: 0}
  m_IsTrigger: 0
  m_UsedByEffector: 0
  m_UsedByComposite: 0
  m_Offset: {x: 0, y: 0}
  m_SpriteTilingProperty:
    border: {x: 0, y: 0, z: 0, w: 0}
    pivot: {x: 0.5, y: 0.5}
    oldSize: {x: 5.53, y: 4.11}
    newSize: {x: 5.53, y: 4.11}
    adaptiveTilingThreshold: 0.5
    drawMode: 0
    adaptiveTiling: 0
  m_AutoTiling: 0
  m_Points:
    m_Paths:
    - - {x: 1.775, y: -1.995}
      - {x: 1.9749999, y: -1.935}
      - {x: 2.2549999, y: -1.785}
      - {x: 2.385, y: -1.675}
      - {x: 2.5249999, y: -1.495}
      - {x: 2.645, y: -1.225}
      - {x: 2.675, y: -1.025}
      - {x: 2.685, y: -0.91499996}
      - {x: 2.685, y: -0.685}
      - {x: 2.675, y: -0.565}
      - {x: 2.655, y: -0.355}
      - {x: 2.595, y: -0.105}
      - {x: 2.495, y: 0.175}
      - {x: 2.305, y: 0.53499997}
      - {x: 2.225, y: 0.66499996}
      - {x: 2.165, y: 0.755}
      - {x: 2.0049999, y: 0.955}
      - {x: 1.9449999, y: 1.025}
      - {x: 1.785, y: 1.1949999}
      - {x: 1.655, y: 1.3249999}
      - {x: 1.4549999, y: 1.485}
      - {x: 1.235, y: 1.635}
      - {x: 1.3149999, y: 1.7249999}
      - {x: 1.305, y: 1.8449999}
      - {x: 1.255, y: 1.935}
      - {x: 1.185, y: 1.995}
      - {x: 1.0749999, y: 1.995}
      - {x: 0.85499996, y: 1.905}
      - {x: 0.755, y: 1.8549999}
      - {x: 0.645, y: 1.895}
      - {x: 0.375, y: 1.9549999}
      - {x: 0.225, y: 1.9649999}
      - {x: -0.195, y: 1.9649999}
      - {x: -0.465, y: 1.935}
      - {x: -0.545, y: 1.915}
      - {x: -0.715, y: 1.8549999}
      - {x: -0.92499995, y: 1.785}
      - {x: -1.2149999, y: 1.635}
      - {x: -1.285, y: 1.5749999}
      - {x: -1.345, y: 1.5649999}
      - {x: -1.635, y: 1.735}
      - {x: -1.7249999, y: 1.735}
      - {x: -1.805, y: 1.685}
      - {x: -1.875, y: 1.535}
      - {x: -1.875, y: 1.4649999}
      - {x: -1.8549999, y: 1.415}
      - {x: -1.8149999, y: 1.375}
      - {x: -1.655, y: 1.285}
      - {x: -1.785, y: 1.165}
      - {x: -1.915, y: 1.035}
      - {x: -2.0449998, y: 0.875}
      - {x: -2.245, y: 0.585}
      - {x: -2.315, y: 0.465}
      - {x: -2.455, y: 0.16499999}
      - {x: -2.5049999, y: 0.035}
      - {x: -2.565, y: -0.114999995}
      - {x: -2.635, y: -0.405}
      - {x: -2.655, y: -0.655}
      - {x: -2.655, y: -0.935}
      - {x: -2.635, y: -1.095}
      - {x: -2.625, y: -1.155}
      - {x: -2.565, y: -1.345}
      - {x: -2.495, y: -1.495}
      - {x: -2.425, y: -1.5849999}
      - {x: -2.345, y: -1.685}
      - {x: -2.225, y: -1.785}
      - {x: -2.165, y: -1.8249999}
      - {x: -1.915, y: -1.9549999}
      - {x: -1.7049999, y: -2.0049999}
      - {x: -1.615, y: -2.0249999}
      - {x: -1.435, y: -2.055}
      - {x: 1.4649999, y: -2.055}
      - {x: 1.645, y: -2.0249999}
--- !u!50 &4811052206315058248
Rigidbody2D:
  serializedVersion: 4
  m_ObjectHideFlags: 0
  m_CorrespondingSourceObject: {fileID: 0}
  m_PrefabInstance: {fileID: 0}
  m_PrefabAsset: {fileID: 0}
  m_GameObject: {fileID: 4811052206315058252}
  m_BodyType: 0
  m_Simulated: 1
  m_UseFullKinematicContacts: 0
  m_UseAutoMass: 0
  m_Mass: 1
  m_LinearDrag: 0
  m_AngularDrag: 0.05
  m_GravityScale: 1
  m_Material: {fileID: 0}
  m_Interpolate: 0
  m_SleepingMode: 1
  m_CollisionDetection: 0
  m_Constraints: 0
