%YAML 1.1
%TAG !u! tag:unity3d.com,2011:
--- !u!1 &7800016173553028038
GameObject:
  m_ObjectHideFlags: 0
  m_CorrespondingSourceObject: {fileID: 0}
  m_PrefabInstance: {fileID: 0}
  m_PrefabAsset: {fileID: 0}
  serializedVersion: 6
  m_Component:
  - component: {fileID: 7800016173553028041}
  - component: {fileID: 7800016173553028042}
  - component: {fileID: 7800016173553028043}
  - component: {fileID: 7800016173553028036}
  - component: {fileID: 7800016173553028037}
  - component: {fileID: 758028148}
  m_Layer: 0
  m_Name: PinkMonster
  m_TagString: Monster
  m_Icon: {fileID: 0}
  m_NavMeshLayer: 0
  m_StaticEditorFlags: 0
  m_IsActive: 1
--- !u!4 &7800016173553028041
Transform:
  m_ObjectHideFlags: 0
  m_CorrespondingSourceObject: {fileID: 0}
  m_PrefabInstance: {fileID: 0}
  m_PrefabAsset: {fileID: 0}
  m_GameObject: {fileID: 7800016173553028038}
  m_LocalRotation: {x: 0, y: 0, z: 0, w: 1}
  m_LocalPosition: {x: -4.24, y: 0, z: 0}
  m_LocalScale: {x: 0.5, y: 0.5, z: 1}
  m_Children: []
  m_Father: {fileID: 0}
  m_RootOrder: 0
  m_LocalEulerAnglesHint: {x: 0, y: 0, z: 0}
--- !u!212 &7800016173553028042
SpriteRenderer:
  m_ObjectHideFlags: 0
  m_CorrespondingSourceObject: {fileID: 0}
  m_PrefabInstance: {fileID: 0}
  m_PrefabAsset: {fileID: 0}
  m_GameObject: {fileID: 7800016173553028038}
  m_Enabled: 1
  m_CastShadows: 0
  m_ReceiveShadows: 0
  m_DynamicOccludee: 1
  m_MotionVectors: 1
  m_LightProbeUsage: 1
  m_ReflectionProbeUsage: 1
  m_RayTracingMode: 0
  m_RenderingLayerMask: 1
  m_RendererPriority: 0
  m_Materials:
  - {fileID: 10754, guid: 0000000000000000f000000000000000, type: 0}
  m_StaticBatchInfo:
    firstSubMesh: 0
    subMeshCount: 0
  m_StaticBatchRoot: {fileID: 0}
  m_ProbeAnchor: {fileID: 0}
  m_LightProbeVolumeOverride: {fileID: 0}
  m_ScaleInLightmap: 1
  m_ReceiveGI: 1
  m_PreserveUVs: 0
  m_IgnoreNormalsForChartDetection: 0
  m_ImportantGI: 0
  m_StitchLightmapSeams: 1
  m_SelectedEditorRenderState: 0
  m_MinimumChartSize: 4
  m_AutoUVMaxDistance: 0.5
  m_AutoUVMaxAngle: 89
  m_LightmapParameters: {fileID: 0}
  m_SortingLayerID: 0
  m_SortingLayer: 0
  m_SortingOrder: 0
  m_Sprite: {fileID: 21300000, guid: 6b34d0ca6f00f9c46b83adc66a33e0bb, type: 3}
  m_Color: {r: 1, g: 1, b: 1, a: 1}
  m_FlipX: 0
  m_FlipY: 0
  m_DrawMode: 0
  m_Size: {x: 5.4, y: 4.59}
  m_AdaptiveModeThreshold: 0.5
  m_SpriteTileMode: 0
  m_WasSpriteAssigned: 1
  m_MaskInteraction: 0
  m_SpriteSortPoint: 0
--- !u!95 &7800016173553028043
Animator:
  serializedVersion: 3
  m_ObjectHideFlags: 0
  m_CorrespondingSourceObject: {fileID: 0}
  m_PrefabInstance: {fileID: 0}
  m_PrefabAsset: {fileID: 0}
  m_GameObject: {fileID: 7800016173553028038}
  m_Enabled: 1
  m_Avatar: {fileID: 0}
  m_Controller: {fileID: 9100000, guid: 70865e93d99646a44946a727154edb59, type: 2}
  m_CullingMode: 0
  m_UpdateMode: 0
  m_ApplyRootMotion: 0
  m_LinearVelocityBlending: 0
  m_WarningMessage: 
  m_HasTransformHierarchy: 1
  m_AllowConstantClipSamplingOptimization: 1
  m_KeepAnimatorControllerStateOnDisable: 0
--- !u!50 &7800016173553028036
Rigidbody2D:
  serializedVersion: 4
  m_ObjectHideFlags: 0
  m_CorrespondingSourceObject: {fileID: 0}
  m_PrefabInstance: {fileID: 0}
  m_PrefabAsset: {fileID: 0}
  m_GameObject: {fileID: 7800016173553028038}
  m_BodyType: 0
  m_Simulated: 1
  m_UseFullKinematicContacts: 0
  m_UseAutoMass: 0
  m_Mass: 1
  m_LinearDrag: 0
  m_AngularDrag: 0.05
  m_GravityScale: 1
  m_Material: {fileID: 0}
  m_Interpolate: 0
  m_SleepingMode: 1
  m_CollisionDetection: 0
  m_Constraints: 0
--- !u!60 &7800016173553028037
PolygonCollider2D:
  m_ObjectHideFlags: 0
  m_CorrespondingSourceObject: {fileID: 0}
  m_PrefabInstance: {fileID: 0}
  m_PrefabAsset: {fileID: 0}
  m_GameObject: {fileID: 7800016173553028038}
  m_Enabled: 1
  m_Density: 1
  m_Material: {fileID: 0}
  m_IsTrigger: 0
  m_UsedByEffector: 0
  m_UsedByComposite: 0
  m_Offset: {x: 0, y: 0}
  m_SpriteTilingProperty:
    border: {x: 0, y: 0, z: 0, w: 0}
    pivot: {x: 0.5, y: 0.5}
    oldSize: {x: 5.4, y: 4.59}
    newSize: {x: 5.4, y: 4.59}
    adaptiveTilingThreshold: 0.5
    drawMode: 0
    adaptiveTiling: 0
  m_AutoTiling: 0
  m_Points:
    m_Paths:
    - - {x: 1.9699999, y: -2.185}
      - {x: 2.1699998, y: -2.075}
      - {x: 2.26, y: -2.0149999}
      - {x: 2.4299998, y: -1.8449999}
      - {x: 2.53, y: -1.7249999}
      - {x: 2.62, y: -1.515}
      - {x: 2.6499999, y: -1.355}
      - {x: 2.6699998, y: -1.245}
      - {x: 2.6699998, y: -0.865}
      - {x: 2.6499999, y: -0.705}
      - {x: 2.62, y: -0.545}
      - {x: 2.58, y: -0.385}
      - {x: 2.53, y: -0.225}
      - {x: 2.45, y: -0.024999999}
      - {x: 2.28, y: 0.315}
      - {x: 2.19, y: 0.45499998}
      - {x: 2.07, y: 0.615}
      - {x: 1.93, y: 0.79499996}
      - {x: 1.77, y: 0.965}
      - {x: 1.5799999, y: 1.135}
      - {x: 1.41, y: 1.275}
      - {x: 1.2099999, y: 1.395}
      - {x: 0.95, y: 1.525}
      - {x: 0.83, y: 1.5749999}
      - {x: 0.74, y: 1.635}
      - {x: 0.34, y: 2.105}
      - {x: 0.21, y: 2.2749999}
      - {x: 0.17, y: 2.2749999}
      - {x: 0.14, y: 2.2649999}
      - {x: 0.089999996, y: 2.095}
      - {x: -0.01, y: 1.795}
      - {x: -0.089999996, y: 1.865}
      - {x: -0.29, y: 1.995}
      - {x: -0.53, y: 2.175}
      - {x: -0.59999996, y: 2.155}
      - {x: -0.59999996, y: 2.0349998}
      - {x: -0.61, y: 1.925}
      - {x: -0.62, y: 1.7149999}
      - {x: -0.65, y: 1.7149999}
      - {x: -0.91999996, y: 1.905}
      - {x: -1.0799999, y: 2.0349998}
      - {x: -1.25, y: 2.135}
      - {x: -1.27, y: 2.115}
      - {x: -1.29, y: 1.905}
      - {x: -1.3199999, y: 1.5749999}
      - {x: -1.35, y: 1.375}
      - {x: -1.63, y: 1.515}
      - {x: -1.8399999, y: 1.5949999}
      - {x: -1.89, y: 1.605}
      - {x: -1.92, y: 1.5949999}
      - {x: -1.91, y: 1.395}
      - {x: -1.88, y: 1.2049999}
      - {x: -1.8499999, y: 0.895}
      - {x: -1.88, y: 0.84499997}
      - {x: -2.08, y: 0.59499997}
      - {x: -2.1499999, y: 0.49499997}
      - {x: -2.21, y: 0.405}
      - {x: -2.35, y: 0.265}
      - {x: -2.4199998, y: 0.16499999}
      - {x: -2.47, y: 0.005}
      - {x: -2.48, y: -0.085}
      - {x: -2.52, y: -0.21499999}
      - {x: -2.59, y: -0.405}
      - {x: -2.62, y: -0.565}
      - {x: -2.6499999, y: -0.745}
      - {x: -2.6599998, y: -0.835}
      - {x: -2.6699998, y: -1.015}
      - {x: -2.6699998, y: -1.115}
      - {x: -2.6599998, y: -1.245}
      - {x: -2.62, y: -1.505}
      - {x: -2.53, y: -1.7149999}
      - {x: -2.44, y: -1.8349999}
      - {x: -2.28, y: -1.995}
      - {x: -2.1499999, y: -2.085}
      - {x: -1.9499999, y: -2.175}
      - {x: -1.77, y: -2.235}
      - {x: -1.64, y: -2.2649999}
      - {x: -1.4599999, y: -2.2949998}
      - {x: 1.4699999, y: -2.2949998}
      - {x: 1.5899999, y: -2.2749999}
      - {x: 1.8199999, y: -2.225}
--- !u!114 &758028148
MonoBehaviour:
  m_ObjectHideFlags: 0
  m_CorrespondingSourceObject: {fileID: 0}
  m_PrefabInstance: {fileID: 0}
  m_PrefabAsset: {fileID: 0}
  m_GameObject: {fileID: 7800016173553028038}
  m_Enabled: 1
  m_EditorHideFlags: 0
  m_Script: {fileID: 11500000, guid: 80dc8392311e0a54595a61cc44555aae, type: 3}
  m_Name: 
  m_EditorClassIdentifier: 
  _baseHp: 1
  _deathSounds: PINKDEATH
  _deadMonsterParticlePrefab: {fileID: 916754805371307292, guid: c32dbc7368556a4409bd388cb6d12624,
    type: 3}
  _deathTag: Crate
